┌───────────┬────────────────────┬───────────────┬───────────────┬────────────────┬──────────────────────────────────────────┬─────────────────┬──────────────────────────────────────────────────────────────────────────────────────────────────────────────────┐
│ c_custkey │       c_name       │    revenue    │   c_acctbal   │     n_name     │                c_address                 │     c_phone     │                                                    c_comment                                                     │
│   int64   │      varchar       │ decimal(38,4) │ decimal(15,2) │    varchar     │                 varchar                  │     varchar     │                                                     varchar                                                      │
├───────────┼────────────────────┼───────────────┼───────────────┼────────────────┼──────────────────────────────────────────┼─────────────────┼──────────────────────────────────────────────────────────────────────────────────────────────────────────────────┤
│     57040 │ Customer#000057040 │   734235.2455 │        632.87 │ JAPAN          │ nICtsILWBB                               │ 22-895-641-3466 │ ep. blithely regular foxes promise slyly furiously ironic depend                                                 │
│    143347 │ Customer#000143347 │   721002.6948 │       2557.47 │ EGYPT          │ ,Q9Ml3w0gvX                              │ 14-742-935-3718 │ endencies sleep. slyly express deposits nag carefully around the even tithes. slyly regular                      │
│     60838 │ Customer#000060838 │   679127.3077 │       2454.77 │ BRAZIL         │ VWmQhWweqj5hFpcvhGFBeOY9hJ4m             │ 12-913-494-9813 │ tes. final instructions nag quickly according to                                                                 │
│    101998 │ Customer#000101998 │   637029.5667 │       3790.89 │ UNITED KINGDOM │ 0,ORojfDdyMca2E2H                        │ 33-593-865-6378 │ ost carefully. slyly regular packages cajole about the blithely final ideas. permanently daring deposit          │
│    125341 │ Customer#000125341 │   633508.0860 │       4983.51 │ GERMANY        │ 9YRcnoUPOM7Sa8xymhsDHdQg                 │ 17-582-695-5962 │ ly furiously brave packages. quickly regular dugouts kindle furiously carefully bold theodolites.                │
│     25501 │ Customer#000025501 │   620269.7849 │       7725.04 │ ETHIOPIA       │ sr4VVVe3xCJQ2oo2QEhi19D,pXqo6kOGaSn2     │ 15-874-808-6793 │ y ironic foxes hinder according to the furiously permanent dolphins. pending ideas integrate blithely from       │
│    115831 │ Customer#000115831 │   596423.8672 │       5098.10 │ FRANCE         │ AlMpPnmtGrOFrDMUs5VLo EIA,Cg,Rw5TBuBoKiO │ 16-715-386-3788 │ unts nag carefully final packages. express theodolites are regular ac                                            │
│     84223 │ Customer#000084223 │   594998.0239 │        528.65 │ UNITED KINGDOM │ Eq51o UpQ4RBr  fYTdrZApDsPV4pQyuPq       │ 33-442-824-8191 │ longside of the slyly final deposits. blithely final platelets about the blithely i                              │
│     54289 │ Customer#000054289 │   585603.3918 │       5583.02 │ IRAN           │ x3ouCpz6,pRNVhajr0CCQG1                  │ 20-834-292-4707 │  cajole furiously after the quickly unusual fo                                                                   │
│     39922 │ Customer#000039922 │   584878.1134 │       7321.11 │ GERMANY        │ 2KtWzW,FYkhdWBfobp6SFXWYKjvU9            │ 17-147-757-8036 │ ironic deposits sublate furiously. carefully regular theodolites along the b                                     │
│      6226 │ Customer#000006226 │   576783.7606 │       2230.09 │ UNITED KINGDOM │ TKbxS1dbkGMtaa,KOi26lbip4P0tPbWK0        │ 33-657-701-3391 │ nal packages are alongside of the quickly bold deposits. carefully                                               │
│       922 │ Customer#000000922 │   576767.5333 │       3869.25 │ GERMANY        │ rsR9lRxyTdHbDOVt8nYbwjK5vAWH9sB          │ 17-945-916-9648 │ cuses cajole carefully regular idea                                                                              │
│    147946 │ Customer#000147946 │   576455.1320 │       2030.13 │ ALGERIA        │ Jqdt1kHAJtuTqHQK,B7 3tJh                 │ 10-886-956-3143 │ ly pending platelets. ironic requests haggle alongside of the furiou                                             │
│    115640 │ Customer#000115640 │   569341.1933 │       6436.10 │ ARGENTINA      │ 6yKLIRRAirUmBjKNO6Z3                     │ 11-411-543-4901 │ ffily ironic deposits. blithely specia                                                                           │
│     73606 │ Customer#000073606 │   568656.8578 │       1785.67 │ JAPAN          │ vx9,7ACVtoKnLcoAHGNYDF                   │ 22-437-653-6966 │ uests cajole according to the foxe                                                                               │
│    110246 │ Customer#000110246 │   566842.9815 │       7763.35 │ VIETNAM        │ UgsLFL3rendATzcHi                        │ 31-943-426-9837 │ ow carefully. blithely careful packages hag                                                                      │
│    142549 │ Customer#000142549 │   563537.2368 │       5085.99 │ INDONESIA      │ pJAmChWXct HNjPzgoBUOgAHduwwIR           │ 19-955-562-2398 │ . slyly bold packages nag quickly against the unusual deposits. express asymptotes detect furiously pending, eve │
│    146149 │ Customer#000146149 │   557254.9865 │       1791.55 │ ROMANIA        │  STLwtlaB6                               │ 29-744-164-6487 │ nic, special instructions. multipliers run carefully blithely iro                                                │
│     52528 │ Customer#000052528 │   556397.3509 │        551.79 │ ARGENTINA      │ elsyt8c9Z,7ch                            │ 11-208-192-3205 │ olphins. blithely silent platelets affix carefully even platelets. ca                                            │
│     23431 │ Customer#000023431 │   554269.5360 │       3381.86 │ ROMANIA        │ kKI5,CJAJQjQRQtOdCiFQ                    │ 29-915-458-2654 │ the final sentiments. carefully ironic packages                                                                  │
│       ·   │         ·          │         ·     │          ·    │    ·           │           ·                              │        ·        │                        ·                                                                                         │
│       ·   │         ·          │         ·     │          ·    │    ·           │           ·                              │        ·        │                        ·                                                                                         │
│       ·   │         ·          │         ·     │          ·    │    ·           │           ·                              │        ·        │                        ·                                                                                         │
│     90542 │ Customer#000090542 │     1085.8596 │       8714.65 │ SAUDI ARABIA   │ e PacvMjNI8AGBRU7 ZC3                    │ 30-809-575-7721 │ en ideas. furiously blithe accounts haggle pinto beans. final id                                                 │
│     20614 │ Customer#000020614 │     1078.3640 │       6766.61 │ FRANCE         │ 0ar8dXwvjvNH3US8MBVD73NqRdmi             │ 16-124-347-6515 │ xes are. carefully ironic packages detect above the deposits. slyly even requests are evenly care                │
│     39247 │ Customer#000039247 │     1076.3880 │       7710.39 │ JORDAN         │ 0J1r2hapw749pKbxhrOaAan,6T8rs            │ 23-202-820-2625 │ blithely carefully pending deposits. deposits are blithely regular pains. carefully regular acc                  │
│    118070 │ Customer#000118070 │     1075.7430 │       4494.08 │ MOROCCO        │ wdT1PzX gp9,omglUKWCJbUuW4nRVIEUzpUKO    │ 25-463-734-5203 │ ach stealthily furiously ironic de                                                                               │
│     66497 │ Customer#000066497 │     1071.5181 │       8681.98 │ IRAQ           │ qIx3cTyt9N07OIiHVQ8UmMa7                 │ 21-409-848-8340 │ eas. quickly express pinto beans use blithely above the i                                                        │
│      1375 │ Customer#000001375 │     1062.3786 │       2011.11 │ KENYA          │ GBgJ4UKragU2ZXzvgF9wa2iT8jyP7PPpuQM      │ 24-620-497-1489 │ deposits. ironic, final packages boost furiously deposits. express plat                                          │
│     33880 │ Customer#000033880 │     1056.0096 │       9278.22 │ IRAQ           │ 68MgIxX5lewrnc5tZTsNbpqR0Lsadhz 4On9     │ 21-148-726-3963 │ ly slyly silent accounts. final dependencies must sleep                                                          │
│     40978 │ Customer#000040978 │     1055.6523 │       -104.06 │ INDIA          │ gKmMcgLkaQPBcgFoTAu3LISImaai2DeqFJKL     │ 18-667-757-4400 │ , regular epitaphs play about the fur                                                                            │
│    146230 │ Customer#000146230 │     1044.0630 │       8236.76 │ EGYPT          │ ,X6hbOuWTU9toclhlf                       │ 14-535-721-9754 │ lites wake. unusual, pending packages cajole since the ideas. pending packages sleep sauternes. even instruction │
│    106537 │ Customer#000106537 │     1036.0890 │       2745.25 │ CANADA         │ OpCBWFtGQpV                              │ 13-619-383-3181 │ y ironic deposits. ironic requests serve c                                                                       │
│    126217 │ Customer#000126217 │     1035.1890 │       2860.84 │ UNITED STATES  │ bHX5Y2VQ4AANtDqvcgCT2l0                  │ 34-685-838-8281 │ ts. blithely ironic accounts haggle furiously. blithely final accounts integrate.                                │
│     43058 │ Customer#000043058 │     1014.7896 │        -23.45 │ KENYA          │ yKxt6hqb8PC                              │ 24-734-718-3037 │  final deposits sleep carefully a                                                                                │
│     72314 │ Customer#000072314 │     1007.6988 │       2295.90 │ MOROCCO        │ RZYv9HI4eFKnYSlx  lq                     │ 25-477-695-2916 │ hely even accounts cajole against the regular packages. regular, express deposits again                          │
│    108712 │ Customer#000108712 │      986.2676 │        836.75 │ KENYA          │ kmSaUNm8dkWdnd4A99ch7VPRbUva0            │ 24-248-542-4505 │ yly pending pinto beans maintain according to the regular requests. furiously speci                              │
│     22225 │ Customer#000022225 │      980.8304 │       5721.02 │ ETHIOPIA       │ PfHcT,jJScNv2zY25H XOfxO62DWv3HKfzR2,SW  │ 15-434-506-7638 │ ers. carefully ironic packages wake across the furiously ironic accounts. blithely ironic deposits lose fluffi   │
│     68098 │ Customer#000068098 │      967.1760 │       9005.13 │ MOROCCO        │ Oz9L,bHruYQVJU2gVqg7DeSaE92AI            │ 25-413-874-7739 │  special deposits sleep against the furiousl                                                                     │
│      8876 │ Customer#000008876 │      941.1972 │        395.66 │ ETHIOPIA       │ kDPEdwW8Xx8m2dTb22zC9GbGwxbK6HBx         │ 15-282-807-4827 │ accounts nag against the slyly ironic accounts. deposit                                                          │
│     22174 │ Customer#000022174 │      917.6491 │       8652.24 │ BRAZIL         │ jkwK2wiPf9MCDHoQFAvMQEjtu5vg             │ 12-119-873-3422 │ requests. foxes haggle. furiously final hockey players cajole across the asymptotes. slyly express depend        │
│     84998 │ Customer#000084998 │      903.6360 │       8814.72 │ INDONESIA      │ TyQ5km9qL8n2cyw4H27NfQ2jnfEHc            │ 19-686-130-7074 │ , final ideas. slowly regular pinto b                                                                            │
│     64663 │ Customer#000064663 │      861.3360 │       9291.67 │ ARGENTINA      │ TpDebaozkKbbumZCQ9e,MpxUtwjTNHpkawAu1PQw │ 11-610-265-2227 │ lites. deposits are carefully final, special packages. furio                                                     │
├───────────┴────────────────────┴───────────────┴───────────────┴────────────────┴──────────────────────────────────────────┴─────────────────┴──────────────────────────────────────────────────────────────────────────────────────────────────────────────────┤
│ 37967 rows (40 shown)                                                                                                                                                                                                                                 8 columns │
└─────────────────────────────────────────────────────────────────────────────────────────────────────────────────────────────────────────────────────────────────────────────────────────────────────────────────────────────────────────────────────────────────┘
Run Time (s): real 0.365 user 0.881372 sys 0.444660
┌────────────┬───────────────┐
│ ps_partkey │     value     │
│   int64    │ decimal(38,2) │
├────────────┼───────────────┤
│     129760 │   17538456.86 │
│     166726 │   16503353.92 │
│     191287 │   16474801.97 │
│     161758 │   16101755.54 │
│      34452 │   15983844.72 │
│     139035 │   15907078.34 │
│       9403 │   15451755.62 │
│     154358 │   15212937.88 │
│      38823 │   15064802.86 │
│      85606 │   15053957.15 │
│      33354 │   14408297.40 │
│     154747 │   14407580.68 │
│      82865 │   14235489.78 │
│      76094 │   14094247.04 │
│        222 │   13937777.74 │
│     121271 │   13908336.00 │
│      55221 │   13716120.47 │
│      22819 │   13666434.28 │
│      76281 │   13646853.68 │
│      85298 │   13581154.93 │
│        ·   │         ·     │
│        ·   │         ·     │
│        ·   │         ·     │
│      36289 │    7901946.50 │
│      61739 │    7900794.00 │
│      52338 │    7898638.08 │
│     194299 │    7898421.24 │
│     105235 │    7897829.94 │
│      77207 │    7897752.72 │
│      96712 │    7897575.27 │
│      10157 │    7897046.25 │
│     171154 │    7896814.50 │
│      79373 │    7896186.00 │
│     113808 │    7893353.88 │
│      27901 │    7892952.00 │
│     128820 │    7892882.72 │
│      25891 │    7890511.20 │
│     122819 │    7888881.02 │
│     154731 │    7888301.33 │
│     101674 │    7879324.60 │
│      51968 │    7879102.21 │
│      72073 │    7877736.11 │
│       5182 │    7874521.73 │
├────────────┴───────────────┤
│    1048 rows (40 shown)    │
└────────────────────────────┘
…
│       double       │
├────────────────────┤
│ 16.380778626395543 │
└────────────────────┘
Run Time (s): real 0.081 user 0.263797 sys 0.037269
Run Time (s): real 0.007 user 0.001524 sys 0.001896
┌───────────┬────────────────────┬───────────────────┬─────────────────┬───────────────┐
│ s_suppkey │       s_name       │     s_address     │     s_phone     │ total_revenue │
│   int64   │      varchar       │      varchar      │     varchar     │ decimal(38,4) │
├───────────┼────────────────────┼───────────────────┼─────────────────┼───────────────┤
│      8449 │ Supplier#000008449 │ 5BXWsJERA2mP5OyO4 │ 20-469-856-8873 │  1772627.2087 │
└───────────┴────────────────────┴───────────────────┴─────────────────┴───────────────┘
Run Time (s): real 0.071 user 0.419494 sys 0.026282
Run Time (s): real 0.004 user 0.000880 sys 0.000978
┌──────────┬──────────────────────────┬────────┬──────────────┐
│ p_brand  │          p_type          │ p_size │ supplier_cnt │
│ varchar  │         varchar          │ int32  │    int64     │
├──────────┼──────────────────────────┼────────┼──────────────┤
│ Brand#41 │ MEDIUM BRUSHED TIN       │      3 │           28 │
│ Brand#54 │ STANDARD BRUSHED COPPER  │     14 │           27 │
│ Brand#11 │ STANDARD BRUSHED TIN     │     23 │           24 │
│ Brand#11 │ STANDARD BURNISHED BRASS │     36 │           24 │
│ Brand#15 │ MEDIUM ANODIZED NICKEL   │      3 │           24 │
│ Brand#15 │ SMALL ANODIZED BRASS     │     45 │           24 │
│ Brand#15 │ SMALL BURNISHED NICKEL   │     19 │           24 │
│ Brand#21 │ MEDIUM ANODIZED COPPER   │      3 │           24 │
│ Brand#22 │ SMALL BRUSHED NICKEL     │      3 │           24 │
│ Brand#22 │ SMALL BURNISHED BRASS    │     19 │           24 │
│ Brand#25 │ MEDIUM BURNISHED COPPER  │     36 │           24 │
│ Brand#31 │ PROMO POLISHED COPPER    │     36 │           24 │
│ Brand#33 │ LARGE POLISHED TIN       │     23 │           24 │
│ Brand#33 │ PROMO POLISHED STEEL     │     14 │           24 │
│ Brand#35 │ PROMO BRUSHED NICKEL     │     14 │           24 │
│ Brand#41 │ ECONOMY BRUSHED STEEL    │      9 │           24 │
│ Brand#41 │ ECONOMY POLISHED TIN     │     19 │           24 │
│ Brand#41 │ LARGE PLATED COPPER      │     36 │           24 │
│ Brand#42 │ ECONOMY PLATED BRASS     │      3 │           24 │
│ Brand#42 │ STANDARD POLISHED TIN    │     49 │           24 │
│    ·     │           ·              │      · │            · │
│    ·     │           ·              │      · │            · │
│    ·     │           ·              │      · │            · │
│ Brand#55 │ STANDARD POLISHED STEEL  │     14 │            4 │
│ Brand#55 │ STANDARD POLISHED STEEL  │     23 │            4 │
│ Brand#55 │ STANDARD POLISHED TIN    │      9 │            4 │
│ Brand#55 │ STANDARD POLISHED TIN    │     19 │            4 │
│ Brand#55 │ STANDARD POLISHED TIN    │     36 │            4 │
│ Brand#11 │ SMALL BRUSHED TIN        │     19 │            3 │
│ Brand#15 │ LARGE PLATED NICKEL      │     45 │            3 │
│ Brand#15 │ LARGE POLISHED NICKEL    │      9 │            3 │
│ Brand#21 │ PROMO BURNISHED STEEL    │     45 │            3 │
│ Brand#22 │ STANDARD PLATED STEEL    │     23 │            3 │
│ Brand#25 │ LARGE PLATED STEEL       │     19 │            3 │
│ Brand#32 │ STANDARD ANODIZED COPPER │     23 │            3 │
│ Brand#33 │ SMALL ANODIZED BRASS     │      9 │            3 │
│ Brand#35 │ MEDIUM ANODIZED TIN      │     19 │            3 │
│ Brand#51 │ SMALL PLATED BRASS       │     23 │            3 │
│ Brand#52 │ MEDIUM BRUSHED BRASS     │     45 │            3 │
│ Brand#53 │ MEDIUM BRUSHED TIN       │     45 │            3 │
│ Brand#54 │ ECONOMY POLISHED BRASS   │      9 │            3 │
│ Brand#55 │ PROMO PLATED BRASS       │     19 │            3 │
│ Brand#55 │ STANDARD PLATED TIN      │     49 │            3 │
├──────────┴──────────────────────────┴────────┴──────────────┤
│ 18314 rows (40 shown)                             4 columns │
└─────────────────────────────────────────────────────────────┘
…
